<?xml version="1.0" encoding="UTF-8" standalone="no"?>
<!-- Created with Inkscape (http://www.inkscape.org/) -->

<svg
   width="511.99994"
   height="511.99997"
   viewBox="0 0 135.46664 135.46666"
   version="1.1"
   id="svg5"
   inkscape:export-filename="favicon.svg"
   inkscape:export-xdpi="96"
   inkscape:export-ydpi="96"
   xmlns:inkscape="http://www.inkscape.org/namespaces/inkscape"
   xmlns:sodipodi="http://sodipodi.sourceforge.net/DTD/sodipodi-0.dtd"
   xmlns="http://www.w3.org/2000/svg"
   xmlns:svg="http://www.w3.org/2000/svg">
  <sodipodi:namedview
     id="namedview7"
     pagecolor="#ffffff"
     bordercolor="#000000"
     borderopacity="0.25"
     inkscape:showpageshadow="2"
     inkscape:pageopacity="0.0"
     inkscape:pagecheckerboard="0"
     inkscape:deskcolor="#d1d1d1"
     inkscape:document-units="mm"
     showgrid="false" />
  <defs
     id="defs2" />
  <g
     inkscape:label="Layer 1"
     inkscape:groupmode="layer"
     id="layer1">
    <rect
       style="fill:#000000;stroke-width:1.31048;stroke-linecap:round"
       id="rect340"
       width="135.46666"
       height="135.46666"
       x="0"
       y="0" />
    <g
       aria-label="BH"
       id="text236"
       style="font-size:69.4543px;font-family:Carlito;-inkscape-font-specification:Carlito;fill:#ffffff;stroke-width:1.92366;stroke-linecap:round">
      <path
         d="m 29.53349,43.424326 v 6.94543 h 27.78172 v 6.94543 H 22.58806 v -13.89086 h -6.94543 v 20.83629 h 48.61801 v -20.83629 z m -13.89086,27.78172 v 20.83629 h 6.94543 v -13.89086 h 34.72715 v 6.94543 H 29.53349 v 6.94543 h 34.72715 v -20.83629 z"
         style="font-family:Mourier;-inkscape-font-specification:Mourier"
         id="path647" />
      <path
         d="m 98.987739,43.424326 v 6.94543 H 112.8786 v 6.94543 H 78.151449 v -6.94543 h 13.89086 v -6.94543 h -20.83629 v 20.83629 h 48.618011 v -20.83629 z m -27.78172,27.78172 v 20.83629 h 20.83629 v -6.94543 h -13.89086 v -6.94543 H 112.8786 v 6.94543 H 98.987739 v 6.94543 h 20.836291 v -20.83629 z"
         style="font-family:Mourier;-inkscape-font-specification:Mourier"
         id="path649" />
    </g>
  </g>
</svg>
