<?xml version='1.0' encoding='utf-8'?>
<svg xmlns="http://www.w3.org/2000/svg" xmlns:xlink="http://www.w3.org/1999/xlink" id="chart-baef456a-9e92-475d-b191-617903327de9" class="pygal-chart" viewBox="0 0 800 600"><!--Generated with pygal 3.0.0 (lxml) ©Kozea 2012-2016 on 2022-12-03--><!--http://pygal.org--><!--http://github.com/Kozea/pygal--><defs><style type="text/css">#chart-baef456a-9e92-475d-b191-617903327de9{-webkit-user-select:none;-webkit-font-smoothing:antialiased;font-family:Public Sans}#chart-baef456a-9e92-475d-b191-617903327de9 .title{font-family:Public Sans;font-size:20px}#chart-baef456a-9e92-475d-b191-617903327de9 .legends .legend text{font-family:Public Sans;font-size:16px}#chart-baef456a-9e92-475d-b191-617903327de9 .axis text{font-family:Public Sans;font-size:10px}#chart-baef456a-9e92-475d-b191-617903327de9 .axis text.major{font-family:Public Sans;font-size:10px}#chart-baef456a-9e92-475d-b191-617903327de9 .text-overlay text.value{font-family:Public Sans;font-size:16px}#chart-baef456a-9e92-475d-b191-617903327de9 .text-overlay text.label{font-family:Public Sans;font-size:10px}#chart-baef456a-9e92-475d-b191-617903327de9 .tooltip{font-family:Public Sans;font-size:14px}#chart-baef456a-9e92-475d-b191-617903327de9 text.no_data{font-family:Public Sans;font-size:64px}
#chart-baef456a-9e92-475d-b191-617903327de9{background-color:transparent}#chart-baef456a-9e92-475d-b191-617903327de9 path,#chart-baef456a-9e92-475d-b191-617903327de9 line,#chart-baef456a-9e92-475d-b191-617903327de9 rect,#chart-baef456a-9e92-475d-b191-617903327de9 circle{-webkit-transition:150ms;-moz-transition:150ms;transition:150ms}#chart-baef456a-9e92-475d-b191-617903327de9 .graph &gt; .background{fill:transparent}#chart-baef456a-9e92-475d-b191-617903327de9 .plot &gt; .background{fill:rgba(240,240,240,0.7)}#chart-baef456a-9e92-475d-b191-617903327de9 .graph{fill:rgba(0,0,0,0.9)}#chart-baef456a-9e92-475d-b191-617903327de9 text.no_data{fill:rgba(0,0,0,0.9)}#chart-baef456a-9e92-475d-b191-617903327de9 .title{fill:rgba(0,0,0,0.9)}#chart-baef456a-9e92-475d-b191-617903327de9 .legends .legend text{fill:rgba(0,0,0,0.9)}#chart-baef456a-9e92-475d-b191-617903327de9 .legends .legend:hover text{fill:rgba(0,0,0,0.9)}#chart-baef456a-9e92-475d-b191-617903327de9 .axis .line{stroke:rgba(0,0,0,0.9)}#chart-baef456a-9e92-475d-b191-617903327de9 .axis .guide.line{stroke:rgba(0,0,0,0.5)}#chart-baef456a-9e92-475d-b191-617903327de9 .axis .major.line{stroke:rgba(0,0,0,0.9)}#chart-baef456a-9e92-475d-b191-617903327de9 .axis text.major{fill:rgba(0,0,0,0.9)}#chart-baef456a-9e92-475d-b191-617903327de9 .axis.y .guides:hover .guide.line,#chart-baef456a-9e92-475d-b191-617903327de9 .line-graph .axis.x .guides:hover .guide.line,#chart-baef456a-9e92-475d-b191-617903327de9 .stackedline-graph .axis.x .guides:hover .guide.line,#chart-baef456a-9e92-475d-b191-617903327de9 .xy-graph .axis.x .guides:hover .guide.line{stroke:rgba(0,0,0,0.9)}#chart-baef456a-9e92-475d-b191-617903327de9 .axis .guides:hover text{fill:rgba(0,0,0,0.9)}#chart-baef456a-9e92-475d-b191-617903327de9 .reactive{fill-opacity:.7;stroke-opacity:.8;stroke-width:1}#chart-baef456a-9e92-475d-b191-617903327de9 .ci{stroke:rgba(0,0,0,0.9)}#chart-baef456a-9e92-475d-b191-617903327de9 .reactive.active,#chart-baef456a-9e92-475d-b191-617903327de9 .active .reactive{fill-opacity:.8;stroke-opacity:.9;stroke-width:4}#chart-baef456a-9e92-475d-b191-617903327de9 .ci .reactive.active{stroke-width:1.5}#chart-baef456a-9e92-475d-b191-617903327de9 .series text{fill:rgba(0,0,0,0.9)}#chart-baef456a-9e92-475d-b191-617903327de9 .tooltip rect{fill:rgba(240,240,240,0.7);stroke:rgba(0,0,0,0.9);-webkit-transition:opacity 150ms;-moz-transition:opacity 150ms;transition:opacity 150ms}#chart-baef456a-9e92-475d-b191-617903327de9 .tooltip .label{fill:rgba(0,0,0,0.9)}#chart-baef456a-9e92-475d-b191-617903327de9 .tooltip .label{fill:rgba(0,0,0,0.9)}#chart-baef456a-9e92-475d-b191-617903327de9 .tooltip .legend{font-size:.8em;fill:rgba(0,0,0,0.5)}#chart-baef456a-9e92-475d-b191-617903327de9 .tooltip .x_label{font-size:.6em;fill:rgba(0,0,0,0.9)}#chart-baef456a-9e92-475d-b191-617903327de9 .tooltip .xlink{font-size:.5em;text-decoration:underline}#chart-baef456a-9e92-475d-b191-617903327de9 .tooltip .value{font-size:1.5em}#chart-baef456a-9e92-475d-b191-617903327de9 .bound{font-size:.5em}#chart-baef456a-9e92-475d-b191-617903327de9 .max-value{font-size:.75em;fill:rgba(0,0,0,0.5)}#chart-baef456a-9e92-475d-b191-617903327de9 .map-element{fill:rgba(240,240,240,0.7);stroke:rgba(0,0,0,0.5) !important}#chart-baef456a-9e92-475d-b191-617903327de9 .map-element .reactive{fill-opacity:inherit;stroke-opacity:inherit}#chart-baef456a-9e92-475d-b191-617903327de9 .color-0,#chart-baef456a-9e92-475d-b191-617903327de9 .color-0 a:visited{stroke:rgb(12,55,149);fill:rgb(12,55,149)}#chart-baef456a-9e92-475d-b191-617903327de9 .color-1,#chart-baef456a-9e92-475d-b191-617903327de9 .color-1 a:visited{stroke:rgb(117,38,65);fill:rgb(117,38,65)}#chart-baef456a-9e92-475d-b191-617903327de9 .color-2,#chart-baef456a-9e92-475d-b191-617903327de9 .color-2 a:visited{stroke:rgb(228,127,0);fill:rgb(228,127,0)}#chart-baef456a-9e92-475d-b191-617903327de9 .color-3,#chart-baef456a-9e92-475d-b191-617903327de9 .color-3 a:visited{stroke:rgb(159,170,0);fill:rgb(159,170,0)}#chart-baef456a-9e92-475d-b191-617903327de9 .color-4,#chart-baef456a-9e92-475d-b191-617903327de9 .color-4 a:visited{stroke:rgb(149,12,12);fill:rgb(149,12,12)}#chart-baef456a-9e92-475d-b191-617903327de9 .color-5,#chart-baef456a-9e92-475d-b191-617903327de9 .color-5 a:visited{stroke:rgb(0,0,0);fill:rgb(0,0,0)}#chart-baef456a-9e92-475d-b191-617903327de9 .text-overlay .color-0 text{fill:black}#chart-baef456a-9e92-475d-b191-617903327de9 .text-overlay .color-1 text{fill:black}#chart-baef456a-9e92-475d-b191-617903327de9 .text-overlay .color-2 text{fill:black}#chart-baef456a-9e92-475d-b191-617903327de9 .text-overlay .color-3 text{fill:black}#chart-baef456a-9e92-475d-b191-617903327de9 .text-overlay .color-4 text{fill:black}#chart-baef456a-9e92-475d-b191-617903327de9 .text-overlay .color-5 text{fill:white}
#chart-baef456a-9e92-475d-b191-617903327de9 text.no_data{text-anchor:middle}#chart-baef456a-9e92-475d-b191-617903327de9 .guide.line{fill:none}#chart-baef456a-9e92-475d-b191-617903327de9 .centered{text-anchor:middle}#chart-baef456a-9e92-475d-b191-617903327de9 .title{text-anchor:middle}#chart-baef456a-9e92-475d-b191-617903327de9 .legends .legend text{fill-opacity:1}#chart-baef456a-9e92-475d-b191-617903327de9 .axis.x text{text-anchor:middle}#chart-baef456a-9e92-475d-b191-617903327de9 .axis.x:not(.web) text[transform]{text-anchor:start}#chart-baef456a-9e92-475d-b191-617903327de9 .axis.x:not(.web) text[transform].backwards{text-anchor:end}#chart-baef456a-9e92-475d-b191-617903327de9 .axis.y text{text-anchor:end}#chart-baef456a-9e92-475d-b191-617903327de9 .axis.y text[transform].backwards{text-anchor:start}#chart-baef456a-9e92-475d-b191-617903327de9 .axis.y2 text{text-anchor:start}#chart-baef456a-9e92-475d-b191-617903327de9 .axis.y2 text[transform].backwards{text-anchor:end}#chart-baef456a-9e92-475d-b191-617903327de9 .axis .guide.line{stroke-dasharray:4,4;stroke:black}#chart-baef456a-9e92-475d-b191-617903327de9 .axis .major.guide.line{stroke-dasharray:6,6;stroke:black}#chart-baef456a-9e92-475d-b191-617903327de9 .horizontal .axis.y .guide.line,#chart-baef456a-9e92-475d-b191-617903327de9 .horizontal .axis.y2 .guide.line,#chart-baef456a-9e92-475d-b191-617903327de9 .vertical .axis.x .guide.line{opacity:0}#chart-baef456a-9e92-475d-b191-617903327de9 .horizontal .axis.always_show .guide.line,#chart-baef456a-9e92-475d-b191-617903327de9 .vertical .axis.always_show .guide.line{opacity:1 !important}#chart-baef456a-9e92-475d-b191-617903327de9 .axis.y .guides:hover .guide.line,#chart-baef456a-9e92-475d-b191-617903327de9 .axis.y2 .guides:hover .guide.line,#chart-baef456a-9e92-475d-b191-617903327de9 .axis.x .guides:hover .guide.line{opacity:1}#chart-baef456a-9e92-475d-b191-617903327de9 .axis .guides:hover text{opacity:1}#chart-baef456a-9e92-475d-b191-617903327de9 .nofill{fill:none}#chart-baef456a-9e92-475d-b191-617903327de9 .subtle-fill{fill-opacity:.2}#chart-baef456a-9e92-475d-b191-617903327de9 .dot{stroke-width:1px;fill-opacity:1;stroke-opacity:1}#chart-baef456a-9e92-475d-b191-617903327de9 .dot.active{stroke-width:5px}#chart-baef456a-9e92-475d-b191-617903327de9 .dot.negative{fill:transparent}#chart-baef456a-9e92-475d-b191-617903327de9 text,#chart-baef456a-9e92-475d-b191-617903327de9 tspan{stroke:none !important}#chart-baef456a-9e92-475d-b191-617903327de9 .series text.active{opacity:1}#chart-baef456a-9e92-475d-b191-617903327de9 .tooltip rect{fill-opacity:.95;stroke-width:.5}#chart-baef456a-9e92-475d-b191-617903327de9 .tooltip text{fill-opacity:1}#chart-baef456a-9e92-475d-b191-617903327de9 .showable{visibility:hidden}#chart-baef456a-9e92-475d-b191-617903327de9 .showable.shown{visibility:visible}#chart-baef456a-9e92-475d-b191-617903327de9 .gauge-background{fill:rgba(229,229,229,1);stroke:none}#chart-baef456a-9e92-475d-b191-617903327de9 .bg-lines{stroke:transparent;stroke-width:2px}</style><script type="text/javascript">window.pygal = window.pygal || {};window.pygal.config = window.pygal.config || {};window.pygal.config['baef456a-9e92-475d-b191-617903327de9'] = {"allow_interruptions": false, "box_mode": "extremes", "classes": ["pygal-chart"], "css": ["file://style.css", "file://graph.css"], "defs": [], "disable_xml_declaration": false, "dots_size": 2.5, "dynamic_print_values": false, "explicit_size": false, "fill": false, "force_uri_protocol": "https", "formatter": null, "half_pie": false, "height": 600, "include_x_axis": false, "inner_radius": 0, "interpolate": null, "interpolation_parameters": {}, "interpolation_precision": 250, "inverse_y_axis": false, "js": ["//kozea.github.io/pygal.js/2.0.x/pygal-tooltips.min.js"], "legend_at_bottom": true, "legend_at_bottom_columns": null, "legend_box_size": 12, "logarithmic": false, "margin": 20, "margin_bottom": null, "margin_left": null, "margin_right": null, "margin_top": null, "max_scale": 16, "min_scale": 4, "missing_value_fill_truncation": "x", "no_data_text": "No data", "no_prefix": false, "order_min": null, "pretty_print": false, "print_labels": false, "print_values": false, "print_values_position": "center", "print_zeroes": true, "range": null, "rounded_bars": null, "secondary_range": null, "show_dots": true, "show_legend": true, "show_minor_x_labels": true, "show_minor_y_labels": true, "show_only_major_dots": false, "show_x_guides": true, "show_x_labels": true, "show_y_guides": false, "show_y_labels": true, "spacing": 10, "stack_from_top": false, "strict": false, "stroke": true, "stroke_style": null, "style": {"background": "transparent", "ci_colors": [], "colors": ["rgb(12,55,149)", "rgb(117,38,65)", "rgb(228,127,0)", "rgb(159,170,0)", "rgb(149,12,12)"], "dot_opacity": "1", "font_family": "Public Sans", "foreground": "rgba(0, 0, 0, 0.9)", "foreground_strong": "rgba(0, 0, 0, 0.9)", "foreground_subtle": "rgba(0, 0, 0, 0.5)", "guide_stroke_color": "black", "guide_stroke_dasharray": "4,4", "label_font_family": "Public Sans", "label_font_size": 10, "legend_font_family": "Public Sans", "legend_font_size": 16, "major_guide_stroke_color": "black", "major_guide_stroke_dasharray": "6,6", "major_label_font_family": "Public Sans", "major_label_font_size": 10, "no_data_font_family": "Public Sans", "no_data_font_size": 64, "opacity": ".7", "opacity_hover": ".8", "plot_background": "rgba(240, 240, 240, 0.7)", "stroke_opacity": ".8", "stroke_opacity_hover": ".9", "stroke_width": "1", "stroke_width_hover": "4", "title_font_family": "Public Sans", "title_font_size": 20, "tooltip_font_family": "Public Sans", "tooltip_font_size": 14, "transition": "150ms", "value_background": "rgba(229, 229, 229, 1)", "value_colors": [], "value_font_family": "Public Sans", "value_font_size": 16, "value_label_font_family": "Public Sans", "value_label_font_size": 10}, "title": "Benchmark Score Comparison", "tooltip_border_radius": 0, "tooltip_fancy_mode": true, "truncate_label": null, "truncate_legend": -1, "width": 800, "x_label_rotation": 0, "x_labels": ["Geekbench Single-Core", "Geekbench Multi-Core", "Geekbench ML", "PCMark Work 3.0"], "x_labels_major": null, "x_labels_major_count": null, "x_labels_major_every": null, "x_title": null, "xrange": null, "y_label_rotation": 0, "y_labels": null, "y_labels_major": null, "y_labels_major_count": null, "y_labels_major_every": null, "y_title": null, "zero": 0, "legends": ["Nokia 5.3", "Teracube 2e", "Murena One", "Fairphone 4", "Crosscall Core-Z5", "Google Pixel 7 Pro"]}</script><script type="text/javascript" xlink:href="https://kozea.github.io/pygal.js/2.0.x/pygal-tooltips.min.js"/></defs><title>Benchmark Score Comparison</title><g class="graph horizontalbar-graph horizontal"><rect x="0" y="0" width="800" height="600" class="background"/><g transform="translate(156, 50)" class="plot"><rect x="0" y="0" width="624.0" height="436.0" class="background"/><g class="axis y"><g class="guides"><text x="-5" y="378.71153846153845" class="">Geekbench Single-Core</text><title>0.125</title></g><g class="guides"><text x="-5" y="273.9038461538462" class="">Geekbench Multi-Core</text><title>0.375</title></g><g class="guides"><text x="-5" y="169.0961538461538" class="">Geekbench ML</text><title>0.625</title></g><g class="guides"><text x="-5" y="64.28846153846155" class="">PCMark Work 3.0</text><title>0.875</title></g></g><g class="axis x always_show"><g class="guides"><path d="M12.000000 0.000000 v436.000000" class="axis major line"/><text x="11.999999999999998" y="451.0" class="major">0</text></g><g class="guides"><path d="M60.594800 0.000000 v436.000000" class="guide line"/><text x="60.594800356361866" y="451.0" class="">1000</text></g><g class="guides"><path d="M109.189601 0.000000 v436.000000" class="guide line"/><text x="109.18960071272373" y="451.0" class="">2000</text></g><g class="guides"><path d="M157.784401 0.000000 v436.000000" class="guide line"/><text x="157.7844010690856" y="451.0" class="">3000</text></g><g class="guides"><path d="M206.379201 0.000000 v436.000000" class="guide line"/><text x="206.37920142544743" y="451.0" class="">4000</text></g><g class="guides"><path d="M254.974002 0.000000 v436.000000" class="major guide line"/><text x="254.9740017818093" y="451.0" class="major">5000</text></g><g class="guides"><path d="M303.568802 0.000000 v436.000000" class="guide line"/><text x="303.5688021381712" y="451.0" class="">6000</text></g><g class="guides"><path d="M352.163602 0.000000 v436.000000" class="guide line"/><text x="352.16360249453305" y="451.0" class="">7000</text></g><g class="guides"><path d="M400.758403 0.000000 v436.000000" class="guide line"/><text x="400.758402850895" y="451.0" class="">8000</text></g><g class="guides"><path d="M449.353203 0.000000 v436.000000" class="guide line"/><text x="449.35320320725685" y="451.0" class="">9000</text></g><g class="guides"><path d="M497.948004 0.000000 v436.000000" class="major guide line"/><text x="497.94800356361867" y="451.0" class="major">10000</text></g><g class="guides"><path d="M546.542804 0.000000 v436.000000" class="guide line"/><text x="546.5428039199805" y="451.0" class="">11000</text></g><g class="guides"><path d="M595.137604 0.000000 v436.000000" class="guide line"/><text x="595.1376042763425" y="451.0" class="">12000</text></g></g><g class="series serie-5 color-5"><g class="bars"><g class="bar"><rect x="12.0" y="406.87743589743593" rx="0" ry="0" width="50.78156637239815" height="13.52717948717949" class="rect reactive tooltip-trigger"/><desc class="value">1045</desc><desc class="x centered">37.39078318619907</desc><desc class="y centered">413.64102564102564</desc><desc class="x_label">Geekbench Single-Core</desc></g><g class="bar"><rect x="12.0" y="302.06974358974355" rx="0" ry="0" width="150.2551227018709" height="13.52717948717949" class="rect reactive tooltip-trigger"/><desc class="value">3092</desc><desc class="x centered">87.12756135093545</desc><desc class="y centered">308.83333333333326</desc><desc class="x_label">Geekbench Multi-Core</desc></g><g class="bar"><rect x="11.999999999999998" y="197.26205128205126" rx="0" ry="0" width="15.064388110472182" height="13.52717948717949" class="rect reactive tooltip-trigger"/><desc class="value">310</desc><desc class="x centered">19.53219405523609</desc><desc class="y centered">204.02564102564102</desc><desc class="x_label">Geekbench ML</desc></g><g class="bar"><rect x="12.0" y="92.45435897435895" rx="0" ry="0" width="554.3694824653762" height="13.52717948717949" class="rect reactive tooltip-trigger"/><desc class="value">11408</desc><desc class="x centered">289.1847412326881</desc><desc class="y centered">99.2179487179487</desc><desc class="x_label">PCMark Work 3.0</desc></g></g></g><g class="series serie-4 color-4"><g class="bars"><g class="bar"><rect x="12.0" y="391.50564102564107" rx="0" ry="0" width="42.180286709322104" height="13.52717948717949" class="rect reactive tooltip-trigger"/><desc class="value">868</desc><desc class="x centered">33.09014335466105</desc><desc class="y centered">398.2692307692308</desc><desc class="x_label">Geekbench Single-Core</desc></g><g class="bar"><rect x="12.0" y="286.6979487179487" rx="0" ry="0" width="135.14213979104235" height="13.52717948717949" class="rect reactive tooltip-trigger"/><desc class="value">2781</desc><desc class="x centered">79.57106989552118</desc><desc class="y centered">293.4615384615384</desc><desc class="x_label">Geekbench Multi-Core</desc></g><g class="bar"><rect x="11.999999999999996" y="181.8902564102564" rx="0" ry="0" width="17.54272292864664" height="13.52717948717949" class="rect reactive tooltip-trigger"/><desc class="value">361</desc><desc class="x centered">20.771361464323316</desc><desc class="y centered">188.65384615384616</desc><desc class="x_label">Geekbench ML</desc></g><g class="bar"><rect x="12.0" y="77.08256410256408" rx="0" ry="0" width="600.0" height="13.52717948717949" class="rect reactive tooltip-trigger"/><desc class="value">12347</desc><desc class="x centered">312.0</desc><desc class="y centered">83.84615384615383</desc><desc class="x_label">PCMark Work 3.0</desc></g></g></g><g class="series serie-3 color-3"><g class="bars"><g class="bar"><rect x="12.0" y="376.1338461538462" rx="0" ry="0" width="31.00348262735887" height="13.52717948717949" class="rect reactive tooltip-trigger"/><desc class="value">638</desc><desc class="x centered">27.501741313679435</desc><desc class="y centered">382.8974358974359</desc><desc class="x_label">Geekbench Single-Core</desc></g><g class="bar"><rect x="12.0" y="271.32615384615383" rx="0" ry="0" width="89.12286385356767" height="13.52717948717949" class="rect reactive tooltip-trigger"/><desc class="value">1834</desc><desc class="x centered">56.56143192678383</desc><desc class="y centered">278.08974358974353</desc><desc class="x_label">Geekbench Multi-Core</desc></g><g class="bar"><rect x="11.999999999999998" y="166.5184615384615" rx="0" ry="0" width="11.4683728841014" height="13.52717948717949" class="rect reactive tooltip-trigger"/><desc class="value">236</desc><desc class="x centered">17.7341864420507</desc><desc class="y centered">173.28205128205127</desc><desc class="x_label">Geekbench ML</desc></g><g class="bar"><rect x="12.0" y="61.71076923076921" rx="0" ry="0" width="394.5897788936584" height="13.52717948717949" class="rect reactive tooltip-trigger"/><desc class="value">8120</desc><desc class="x centered">209.2948894468292</desc><desc class="y centered">68.47435897435895</desc><desc class="x_label">PCMark Work 3.0</desc></g></g></g><g class="series serie-2 color-2"><g class="bars"><g class="bar"><rect x="11.999999999999998" y="360.7620512820513" rx="0" ry="0" width="13.606544099781326" height="13.52717948717949" class="rect reactive tooltip-trigger"/><desc class="value">280</desc><desc class="x centered">18.803272049890662</desc><desc class="y centered">367.525641025641</desc><desc class="x_label">Geekbench Single-Core</desc></g><g class="bar"><rect x="12.0" y="255.95435897435888" rx="0" ry="0" width="63.51340406576496" height="13.52717948717949" class="rect reactive tooltip-trigger"/><desc class="value">1307</desc><desc class="x centered">43.75670203288248</desc><desc class="y centered">262.7179487179486</desc><desc class="x_label">Geekbench Multi-Core</desc></g></g></g><g class="series serie-1 color-1"><g class="bars"><g class="bar"><rect x="11.999999999999998" y="345.3902564102564" rx="0" ry="0" width="6.6574876488215775" height="13.52717948717949" class="rect reactive tooltip-trigger"/><desc class="value">137</desc><desc class="x centered">15.328743824410786</desc><desc class="y centered">352.15384615384613</desc><desc class="x_label">Geekbench Single-Core</desc></g><g class="bar"><rect x="12.0" y="240.58256410256402" rx="0" ry="0" width="42.08309710860938" height="13.52717948717949" class="rect reactive tooltip-trigger"/><desc class="value">866</desc><desc class="x centered">33.04154855430469</desc><desc class="y centered">247.34615384615378</desc><desc class="x_label">Geekbench Multi-Core</desc></g><g class="bar"><rect x="12.0" y="30.96717948717947" rx="0" ry="0" width="232.96347290839876" height="13.52717948717949" class="rect reactive tooltip-trigger"/><desc class="value">4794</desc><desc class="x centered">128.4817364541994</desc><desc class="y centered">37.73076923076921</desc><desc class="x_label">PCMark Work 3.0</desc></g></g></g><g class="series serie-0 color-0"><g class="bars"><g class="bar"><rect x="11.999999999999998" y="330.01846153846157" rx="0" ry="0" width="14.772819308334013" height="13.52717948717949" class="rect reactive tooltip-trigger"/><desc class="value">304</desc><desc class="x centered">19.386409654167004</desc><desc class="y centered">336.78205128205127</desc><desc class="x_label">Geekbench Single-Core</desc></g><g class="bar"><rect x="12.0" y="225.21076923076916" rx="0" ry="0" width="57.09889041872519" height="13.52717948717949" class="rect reactive tooltip-trigger"/><desc class="value">1175</desc><desc class="x centered">40.549445209362595</desc><desc class="y centered">231.97435897435892</desc><desc class="x_label">Geekbench Multi-Core</desc></g><g class="bar"><rect x="11.999999999999998" y="120.4030769230769" rx="0" ry="0" width="10.642261278043248" height="13.52717948717949" class="rect reactive tooltip-trigger"/><desc class="value">219</desc><desc class="x centered">17.32113063902162</desc><desc class="y centered">127.16666666666664</desc><desc class="x_label">Geekbench ML</desc></g><g class="bar"><rect x="12.0" y="15.595384615384598" rx="0" ry="0" width="319.12205394022834" height="13.52717948717949" class="rect reactive tooltip-trigger"/><desc class="value">6567</desc><desc class="x centered">171.56102697011417</desc><desc class="y centered">22.358974358974343</desc><desc class="x_label">PCMark Work 3.0</desc></g></g></g></g><g class="titles"><text x="400.0" y="30" class="title plot_title">Benchmark Score Comparison</text></g><g transform="translate(156, 50)" class="plot overlay"><g class="series serie-5 color-5"/><g class="series serie-4 color-4"/><g class="series serie-3 color-3"/><g class="series serie-2 color-2"/><g class="series serie-1 color-1"/><g class="series serie-0 color-0"/></g><g transform="translate(156, 50)" class="plot text-overlay"><g class="series serie-5 color-5"/><g class="series serie-4 color-4"/><g class="series serie-3 color-3"/><g class="series serie-2 color-2"/><g class="series serie-1 color-1"/><g class="series serie-0 color-0"/></g><g transform="translate(156, 50)" class="plot tooltip-overlay"><g transform="translate(0 0)" style="opacity: 0" class="tooltip"><rect rx="0" ry="0" width="0" height="0" class="tooltip-box"/><g class="text"/></g></g><g transform="translate(166, 516)" class="legends"><g id="activate-serie-0" class="legend reactive activate-serie"><rect x="0.0" y="2.0" width="12" height="12" class="color-0 reactive"/><text x="17.0" y="12.8">Nokia 5.3</text></g><g id="activate-serie-1" class="legend reactive activate-serie"><rect x="208.0" y="2.0" width="12" height="12" class="color-1 reactive"/><text x="225.0" y="12.8">Teracube 2e</text></g><g id="activate-serie-2" class="legend reactive activate-serie"><rect x="416.0" y="2.0" width="12" height="12" class="color-2 reactive"/><text x="433.0" y="12.8">Murena One</text></g><g id="activate-serie-3" class="legend reactive activate-serie"><rect x="0.0" y="26.0" width="12" height="12" class="color-3 reactive"/><text x="17.0" y="36.8">Fairphone 4</text></g><g id="activate-serie-4" class="legend reactive activate-serie"><rect x="208.0" y="26.0" width="12" height="12" class="color-4 reactive"/><text x="225.0" y="36.8">Crosscall Core-Z5</text></g><g id="activate-serie-5" class="legend reactive activate-serie"><rect x="416.0" y="26.0" width="12" height="12" class="color-5 reactive"/><text x="433.0" y="36.8">Google Pixel 7 Pro</text></g></g></g></svg>